===> Started at: Mon Jan 30 17:20:06 CET 2023
===> Generating: /home/savary/PARSEME/PARSEME-corpora/Gitlab/parseme_corpus_languages/parseme_corpus_fa/UDPIPE-REANNOTATION/dev.new.cupt
WARNING: CoNLL-U file `/home/savary/PARSEME/PARSEME-corpora/Gitlab/parseme_corpus_languages/parseme_corpus_fa/conllu/dev.conllu` not found
WARNING: Not using any CoNLL-U file
  % Total    % Received % Xferd  Average Speed   Time    Time     Time  Current
                                 Dload  Upload   Total   Spent    Left  Speed
  0     0    0     0    0     0      0      0 --:--:-- --:--:-- --:--:--     0100  456k    0  2458  100  454k   2218   409k  0:00:01  0:00:01 --:--:--  412k100  502k    0 49420  100  454k  29504   271k  0:00:01  0:00:01 --:--:--  299k100  563k    0  109k  100  454k  38060   153k  0:00:02  0:00:02 --:--:--  191k100  595k    0  141k  100  454k  39497   123k  0:00:03  0:00:03 --:--:--  162k100  708k    0  254k  100  454k  54817  97884  0:00:04  0:00:04 --:--:--  149k100  723k    0  269k  100  454k  50064  84403  0:00:05  0:00:05 --:--:-- 62091100  774k    0  319k  100  454k  49798  70733  0:00:06  0:00:06 --:--:-- 56722100  848k    0  394k  100  454k  50707  58369  0:00:07  0:00:07 --:--:-- 58157100  913k    0  458k  100  454k  54415  53867  0:00:08  0:00:08 --:--:-- 65426100  949k    0  494k  100  454k  52746  48417  0:00:09  0:00:09 --:--:-- 50708100 1017k    0  563k  100  454k  55411  44699  0:00:10  0:00:10 --:--:-- 61430100 1116k    0  662k  100  454k  61265  41999  0:00:11  0:00:11 --:--:-- 78044
===> File ready: /home/savary/PARSEME/PARSEME-corpora/Gitlab/parseme_corpus_languages/parseme_corpus_fa/UDPIPE-REANNOTATION/dev.new.cupt
===> Finished at: Mon Jan 30 17:20:17 CET 2023
===> Started at: Mon Jan 30 17:20:17 CET 2023
===> Generating: /home/savary/PARSEME/PARSEME-corpora/Gitlab/parseme_corpus_languages/parseme_corpus_fa/UDPIPE-REANNOTATION/test.new.cupt
WARNING: CoNLL-U file `/home/savary/PARSEME/PARSEME-corpora/Gitlab/parseme_corpus_languages/parseme_corpus_fa/conllu/test.conllu` not found
WARNING: Not using any CoNLL-U file
  % Total    % Received % Xferd  Average Speed   Time    Time     Time  Current
                                 Dload  Upload   Total   Spent    Left  Speed
  0     0    0     0    0     0      0      0 --:--:-- --:--:-- --:--:--     0100  389k    0 13772  100  376k  12520   342k  0:00:01  0:00:01 --:--:--  354k100  421k    0 46532  100  376k  25609   207k  0:00:01  0:00:01 --:--:--  231k100  509k    0  133k  100  376k  44526   122k  0:00:03  0:00:03 --:--:--  166k100  598k    0  222k  100  376k  60053    99k  0:00:03  0:00:03 --:--:--  157k100  664k    0  287k  100  376k  54144  70775  0:00:05  0:00:05 --:--:--  121k100  730k    0  354k  100  376k  56518  59958  0:00:06  0:00:06 --:--:-- 65607100  797k    0  421k  100  376k  60723  54204  0:00:07  0:00:07 --:--:-- 72798100  876k    0  500k  100  376k  62762  47175  0:00:08  0:00:08 --:--:-- 73742100  929k    0  552k  100  376k  68382  46536  0:00:08  0:00:08 --:--:-- 75439
===> File ready: /home/savary/PARSEME/PARSEME-corpora/Gitlab/parseme_corpus_languages/parseme_corpus_fa/UDPIPE-REANNOTATION/test.new.cupt
===> Finished at: Mon Jan 30 17:20:26 CET 2023
===> Started at: Mon Jan 30 17:20:26 CET 2023
===> Generating: /home/savary/PARSEME/PARSEME-corpora/Gitlab/parseme_corpus_languages/parseme_corpus_fa/UDPIPE-REANNOTATION/train.new.cupt
WARNING: CoNLL-U file `/home/savary/PARSEME/PARSEME-corpora/Gitlab/parseme_corpus_languages/parseme_corpus_fa/conllu/train.conllu` not found
WARNING: Not using any CoNLL-U file
  % Total    % Received % Xferd  Average Speed   Time    Time     Time  Current
                                 Dload  Upload   Total   Spent    Left  Speed
  0     0    0     0    0     0      0      0 --:--:-- --:--:-- --:--:--     0100 2279k    0     0  100 2279k      0  1653k  0:00:01  0:00:01 --:--:-- 1653k100 2329k    0 50875  100 2279k  25890  1160k  0:00:01  0:00:01 --:--:-- 1185k100 2397k    0  117k  100 2279k  41014   774k  0:00:02  0:00:02 --:--:--  814k100 2453k    0  173k  100 2279k  49803   637k  0:00:03  0:00:03 --:--:--  686k100 2528k    0  248k  100 2279k  55758   499k  0:00:04  0:00:04 --:--:--  553k100 2581k    0  301k  100 2279k  52344   386k  0:00:05  0:00:05 --:--:-- 68306100 2688k    0  408k  100 2279k  59589   324k  0:00:07  0:00:07 --:--:-- 72678100 2727k    0  447k  100 2279k  60549   301k  0:00:07  0:00:07 --:--:-- 72974100 2813k    0  533k  100 2279k  60862   253k  0:00:08  0:00:08 --:--:-- 68189100 2855k    0  575k  100 2279k  61513   237k  0:00:09  0:00:09 --:--:-- 66753100 2898k    0  618k  100 2279k  59164   212k  0:00:10  0:00:10 --:--:-- 67519100 2993k    0  713k  100 2279k  63190   197k  0:00:11  0:00:11 --:--:-- 68755100 3065k    0  785k  100 2279k  63055   178k  0:00:12  0:00:12 --:--:-- 66728100 3168k    0  888k  100 2279k  66143   165k  0:00:13  0:00:13 --:--:-- 76059100 3175k    0  895k  100 2279k  61992   154k  0:00:14  0:00:14 --:--:-- 62871100 3258k    0  978k  100 2279k  63730   144k  0:00:15  0:00:15 --:--:-- 73478100 3361k    0 1081k  100 2279k  66496   136k  0:00:16  0:00:16 --:--:-- 74039100 3463k    0 1183k  100 2279k  67800   127k  0:00:17  0:00:17 --:--:-- 79624100 3520k    0 1240k  100 2279k  66851   119k  0:00:19  0:00:19 --:--:-- 68709100 3586k    0 1306k  100 2279k  66465   113k  0:00:20  0:00:20 --:--:-- 78894100 3648k    0 1368k  100 2279k  68055   110k  0:00:20  0:00:20 --:--:-- 82029100 3708k    0 1428k  100 2279k  67509   105k  0:00:21  0:00:21 --:--:-- 70869100 3721k    0 1441k  100 2279k  65332   100k  0:00:22  0:00:22 --:--:-- 55963100 3861k    0 1581k  100 2279k  67194  96874  0:00:24  0:00:24 --:--:-- 68474100 3893k    0 1613k  100 2279k  66526  93980  0:00:24  0:00:24 --:--:-- 66785100 4002k    0 1722k  100 2279k  68177  90260  0:00:25  0:00:25 --:--:-- 68657100 4053k    0 1773k  100 2279k  67534  86822  0:00:26  0:00:26 --:--:-- 67651100 4106k    0 1826k  100 2279k  66311  82769  0:00:28  0:00:28 --:--:-- 70262100 4192k    0 1912k  100 2279k  68175  81253  0:00:28  0:00:28 --:--:-- 73276100 4290k    0 2010k  100 2279k  68716  77920  0:00:29  0:00:29 --:--:-- 79359100 4355k    0 2076k  100 2279k  69305  76112  0:00:30  0:00:30 --:--:-- 75371100 4405k    0 2125k  100 2279k  68180  73136  0:00:31  0:00:31 --:--:-- 71645100 4437k    0 2157k  100 2279k  67844  71696  0:00:32  0:00:32 --:--:-- 77750100 4534k    0 2254k  100 2279k  67795  68549  0:00:34  0:00:34 --:--:-- 65756100 4565k    0 2285k  100 2279k  67101  66940  0:00:34  0:00:34 --:--:-- 57253100 4621k    0 2341k  100 2279k  66975  65216  0:00:35  0:00:35 --:--:-- 53027100 4711k    0 2431k  100 2279k  68059  63809  0:00:36  0:00:36 --:--:-- 67218100 4787k    0 2507k  100 2279k  67832  61687  0:00:37  0:00:37 --:--:-- 67773100 4853k    0 2573k  100 2279k  67616  59904  0:00:38  0:00:38 --:--:-- 66361100 4885k    0 2605k  100 2279k  67232  58832  0:00:39  0:00:39 --:--:-- 68181100 4949k    0 2669k  100 2279k  66981  57198  0:00:40  0:00:40 --:--:-- 67042100 4991k    0 2711k  100 2279k  66781  56151  0:00:41  0:00:41 --:--:-- 57412100 5077k    0 2797k  100 2279k  66516  54207  0:00:43  0:00:43 --:--:-- 56980100 5153k    0 2873k  100 2279k  67445  53519  0:00:43  0:00:43 --:--:-- 66016100 5249k    0 2969k  100 2279k  68007  52220  0:00:44  0:00:44 --:--:-- 74131100 5319k    0 3039k  100 2279k  68057  51045  0:00:45  0:00:45 --:--:-- 76967100 5340k    0 3060k  100 2279k  67295  50132  0:00:46  0:00:46 --:--:-- 71560100 5439k    0 3159k  100 2279k  67859  48967  0:00:47  0:00:47 --:--:-- 80386100 5506k    0 3226k  100 2279k  67916  47996  0:00:48  0:00:48 --:--:-- 72020100 5597k    0 3317k  100 2279k  68307  46938  0:00:49  0:00:49 --:--:-- 70986100 5646k    0 3366k  100 2279k  68529  46405  0:00:50  0:00:50 --:--:-- 73264
===> File ready: /home/savary/PARSEME/PARSEME-corpora/Gitlab/parseme_corpus_languages/parseme_corpus_fa/UDPIPE-REANNOTATION/train.new.cupt
===> Finished at: Mon Jan 30 17:21:18 CET 2023
